Linear Models - Data Management with the tidyverse
…
Poll Everywhere Question 3

Pivot staff data and mutate percentage

(staff_long <- staff %>%
  pivot_longer(
    cols = -faculty_type,    # columns to pivot
    names_to = "year",       # name of new column for variable names
    values_to = "percentage" # name of new column for values
  ) %>%
  mutate(percentage = as.numeric(percentage))
)

# A tibble: 55 × 3
   faculty_type              year  percentage
   <chr>                     <chr>      <dbl>
 1 Full-Time Tenured Faculty 1975        29  
 2 Full-Time Tenured Faculty 1989        27.6
 3 Full-Time Tenured Faculty 1993        25  
 4 Full-Time Tenured Faculty 1995        24.8
 5 Full-Time Tenured Faculty 1999        21.8
 6 Full-Time Tenured Faculty 2001        20.3
 7 Full-Time Tenured Faculty 2003        19.3
 8 Full-Time Tenured Faculty 2005        17.8
 9 Full-Time Tenured Faculty 2007        17.2
10 Full-Time Tenured Faculty 2009        16.8
# ℹ 45 more rows
…
