Linear Models - Lesson 14: MLR Model Diagnostics
…
Values of leverage are: \(0 \leq h_i \leq 1\)

We flag an observation if the leverage is “high”

Only good for SLR: Some textbooks use \(h_i > 4/n\) where \(n\) = sample size

Only good for SLR: Some people suggest \(h_i > 6/n\)

Works for MLR: \(h_i > 3p/n\) where \(p\) = number of regression coefficients

aug = aug %>% relocate(.hat, .after = FemaleLiteracyRate)
aug %>% arrange(desc(.hat))

# A tibble: 72 × 15
   country       LifeExpectancyYrs FemaleLiteracyRate  .hat CO2_q income_levels1
   <chr>                     <dbl>              <dbl> <dbl> <fct> <fct>         
 1 Mexico                     75.8               92.3 0.445 (2.5… Upper middle …
 2 Tajikistan                 69.9               99.6 0.425 [0.0… Lower middle …
 3 Bosnia and H…              76.9               96.7 0.367 (4.6… Upper middle …
 4 Uzbekistan                 69                 99.2 0.363 (2.5… Lower middle …
 5 Bangladesh                 71                 53.4 0.347 [0.0… Lower middle …
 6 Afghanistan                56.7               13   0.327 [0.0… Low income    
 7 Zimbabwe                   51.9               80.1 0.321 [0.0… Low income    
 8 Angola                     60.9               58.6 0.320 (0.8… Lower middle …
 9 Myanmar                    67.4               90.4 0.304 [0.0… Lower middle …
10 Yemen                      67.7               48.5 0.296 (0.8… Lower middle …
# ℹ 62 more rows
# ℹ 9 more variables: four_regions <fct>, WaterSourcePrct <dbl>,
#   FoodSupplykcPPD <dbl>, members_oecd_g77 <chr>, .fitted <dbl>, .resid <dbl>,
#   .sigma <dbl>, .cooksd <dbl>, .std.resid <dbl>
…
